<?xml version="1.0" encoding="UTF-8" standalone="no"?>
<!-- Created with Inkscape (http://www.inkscape.org/) -->

<svg
   xmlns:dc="http://purl.org/dc/elements/1.1/"
   xmlns:cc="http://creativecommons.org/ns#"
   xmlns:rdf="http://www.w3.org/1999/02/22-rdf-syntax-ns#"
   xmlns:svg="http://www.w3.org/2000/svg"
   xmlns="http://www.w3.org/2000/svg"
   xmlns:xlink="http://www.w3.org/1999/xlink"
   xmlns:sodipodi="http://sodipodi.sourceforge.net/DTD/sodipodi-0.dtd"
   xmlns:inkscape="http://www.inkscape.org/namespaces/inkscape"
   width="64"
   version="1.1"
   height="64"
   id="svg57"
   sodipodi:docname="videocapture.svg"
   inkscape:version="0.92.4 (5da689c313, 2019-01-14)"
   inkscape:export-filename="/home/zilti/projects/videocapture/videocapture.png"
   inkscape:export-xdpi="384"
   inkscape:export-ydpi="384">
  <sodipodi:namedview
     pagecolor="#ffffff"
     bordercolor="#666666"
     borderopacity="1"
     objecttolerance="10"
     gridtolerance="10"
     guidetolerance="10"
     inkscape:pageopacity="0"
     inkscape:pageshadow="2"
     inkscape:window-width="1631"
     inkscape:window-height="848"
     id="namedview59"
     showgrid="false"
     inkscape:zoom="7.375"
     inkscape:cx="-25.672952"
     inkscape:cy="43.764976"
     inkscape:window-x="0"
     inkscape:window-y="0"
     inkscape:window-maximized="0"
     inkscape:current-layer="layer1" />
  <defs
     id="defs5455">
    <linearGradient
       inkscape:collect="always"
       id="linearGradient4303">
      <stop
         style="stop-color:#c6cdd1"
         id="stop4305" />
      <stop
         offset="1"
         style="stop-color:#e0e5e7"
         id="stop4307" />
    </linearGradient>
    <linearGradient
       inkscape:collect="always"
       id="linearGradient4770-8">
      <stop
         id="stop4772-3" />
      <stop
         offset="1"
         style="stop-opacity:0"
         id="stop4774-6" />
    </linearGradient>
    <linearGradient
       inkscape:collect="always"
       id="linearGradient5002">
      <stop
         style="stop-color:#2e5d89"
         id="stop5004" />
      <stop
         offset="1"
         style="stop-color:#1b92f4"
         id="stop5006" />
    </linearGradient>
    <linearGradient
       inkscape:collect="always"
       id="linearGradient4327"
       xlink:href="#linearGradient5002"
       y1="514.63202"
       y2="527.79797"
       x1="402.40549"
       gradientUnits="userSpaceOnUse"
       x2="415.57144"
       gradientTransform="matrix(1.2000014 0 0 1.2000014 -81.71483 -104.96033)" />
    <linearGradient
       inkscape:collect="always"
       id="linearGradient4352"
       xlink:href="#linearGradient5002"
       y1="512.79797"
       y2="527.79797"
       x1="400.57144"
       x2="415.57144"
       gradientUnits="userSpaceOnUse"
       gradientTransform="matrix(1.1818182 0 0 1.1818182 -74.28571 -95.23599)" />
    <linearGradient
       inkscape:collect="always"
       id="linearGradient4356"
       xlink:href="#linearGradient5002"
       y1="509.70438"
       y2="527.79797"
       x1="397.47784"
       x2="415.57144"
       gradientUnits="userSpaceOnUse"
       gradientTransform="matrix(1.0000011 0 0 1.0000011 -0.000424 -1.00062)" />
    <linearGradient
       inkscape:collect="always"
       id="linearGradient4356-7"
       xlink:href="#linearGradient5002"
       y1="498.28754"
       y2="527.79797"
       x1="386.061"
       x2="415.57144"
       gradientUnits="userSpaceOnUse"
       gradientTransform="matrix(0.70000076 0 0 0.70000076 122.57112 154.93896)" />
    <linearGradient
       inkscape:collect="always"
       id="linearGradient4199">
      <stop
         style="stop-color:#2f3943"
         id="stop4201" />
      <stop
         offset="1"
         style="stop-color:#4d5662"
         id="stop4203" />
    </linearGradient>
    <linearGradient
       inkscape:collect="always"
       id="linearGradient4191">
      <stop
         style="stop-color:#18222a"
         id="stop4193" />
      <stop
         offset="1"
         style="stop-color:#566069"
         id="stop4195" />
    </linearGradient>
    <linearGradient
       inkscape:collect="always"
       id="linearGradient4510"
       xlink:href="#linearGradient4199"
       y1="508.798"
       y2="528.79797"
       x1="398.5715"
       gradientUnits="userSpaceOnUse"
       x2="418.57147"
       gradientTransform="matrix(-1.2142883 0 0 -1.2142879 904.69496 1149.9824)" />
    <linearGradient
       inkscape:collect="always"
       id="linearGradient4545"
       xlink:href="#linearGradient4199"
       y1="28"
       y2="12"
       gradientUnits="userSpaceOnUse"
       x2="0"
       gradientTransform="matrix(1.2500005 0 0 1.1875001 382.57144 495.54797)" />
    <linearGradient
       inkscape:collect="always"
       id="linearGradient4545-5"
       xlink:href="#linearGradient4199"
       y1="28"
       y2="12"
       gradientUnits="userSpaceOnUse"
       x2="0"
       gradientTransform="matrix(-1.2500007 0 0 1.1875001 434.57144 495.54797)" />
    <linearGradient
       inkscape:collect="always"
       id="linearGradient4577"
       xlink:href="#linearGradient4191"
       y1="534.79797"
       y2="538.79797"
       x1="405.57144"
       gradientUnits="userSpaceOnUse"
       x2="411.57144"
       gradientTransform="matrix(1.2500048 0 0 0.70910087 -102.14482 157.57228)" />
    <linearGradient
       inkscape:collect="always"
       id="linearGradient4510-8"
       xlink:href="#linearGradient4191"
       y1="509.53143"
       y2="530.99805"
       x1="398.30478"
       gradientUnits="userSpaceOnUse"
       x2="419.77139"
       gradientTransform="matrix(0.92857223 0 0 0.92857223 29.18337 36.12792)" />
    <linearGradient
       inkscape:collect="always"
       id="linearGradient4609"
       xlink:href="#linearGradient4303"
       y1="530.79797"
       y2="507.798"
       x1="421.57144"
       gradientUnits="userSpaceOnUse"
       x2="398.57144"
       gradientTransform="matrix(1.1875 0 0 1.1875 -76.60712 -98.46213)" />
    <linearGradient
       inkscape:collect="always"
       id="linearGradient4617"
       xlink:href="#linearGradient4303"
       y1="531.79797"
       y2="501.69922"
       gradientUnits="userSpaceOnUse"
       x2="0"
       gradientTransform="matrix(1.0833321 0 0 1.2045475 -34.04704 -106.77793)" />
    <linearGradient
       inkscape:collect="always"
       id="linearGradient4159-5">
      <stop
         style="stop-color:#1d1e1e"
         id="stop4161-5" />
      <stop
         offset="1"
         style="stop-color:#44484c"
         id="stop4163-7" />
    </linearGradient>
    <linearGradient
       inkscape:collect="always"
       id="linearGradient4735"
       xlink:href="#linearGradient4770-8"
       y1="519.79797"
       y2="541.01117"
       gradientUnits="userSpaceOnUse"
       x2="0"
       gradientTransform="matrix(0.83567166 -0.83567166 0.83567166 0.83567166 -367.24058 426.12187)" />
    <linearGradient
       inkscape:collect="always"
       id="linearGradient4776-4"
       xlink:href="#linearGradient4770-8"
       y1="538.79797"
       y2="541.79797"
       x1="410.57144"
       gradientUnits="userSpaceOnUse"
       x2="413.57144"
       gradientTransform="matrix(1.2727274 0 0 1.4242361 -111.33768 -225.85028)" />
    <linearGradient
       inkscape:collect="always"
       id="linearGradient4784-5"
       xlink:href="#linearGradient4159-5"
       y1="541.79797"
       y2="543.79797"
       gradientUnits="userSpaceOnUse"
       x2="0"
       gradientTransform="matrix(1.1874992 0 0 1.000019 -76.60685 3.98971)" />
    <linearGradient
       inkscape:collect="always"
       id="linearGradient4828"
       xlink:href="#linearGradient4303"
       y1="537.79797"
       y2="539.79797"
       gradientUnits="userSpaceOnUse"
       x2="0"
       gradientTransform="matrix(1.1874993 0 0 1.3636306 -76.60685 -193.01434)" />
  </defs>
  <metadata
     id="metadata5458">
    <rdf:RDF>
      <cc:Work
         rdf:about="">
        <dc:format>image/svg+xml</dc:format>
        <dc:type
           rdf:resource="http://purl.org/dc/dcmitype/StillImage" />
      </cc:Work>
    </rdf:RDF>
  </metadata>
  <g
     inkscape:label="Capa 1"
     inkscape:groupmode="layer"
     id="layer1"
     transform="matrix(1 0 0 1 -376.57144 -491.79797)">
    <rect
       width="37.999977"
       x="389.57144"
       y="540.34344"
       height="5.454523"
       style="fill:url(#linearGradient4828);stroke-linecap:round;stroke-linejoin:round;stroke-width:2"
       id="rect4820" />
    <rect
       width="52"
       x="382.57153"
       y="504.88885"
       rx="0"
       height="28.909117"
       style="fill:url(#linearGradient4617);stroke-linecap:round;stroke-linejoin:round;stroke-width:2"
       id="rect4288" />
    <path
       inkscape:connector-curvature="0"
       style="fill:url(#linearGradient4735);opacity:0.2;stroke-linecap:round;stroke-linejoin:round;stroke-width:2"
       id="rect4727"
       d="m 421.94306,505.69912 -26.74325,26.74325 0.81019,0.81019 38.56144,0 0,-12.56143 z" />
    <path
       inkscape:connector-curvature="0"
       style="fill:url(#linearGradient4776-4);opacity:0.2;fill-rule:evenodd"
       id="path4768"
       d="m 403.57143,541.52529 3.81817,4.2727 10.18183,0 -3.81819,-4.2727 z" />
    <path
       inkscape:connector-curvature="0"
       style="fill:url(#linearGradient4577);stroke-linecap:round;stroke-linejoin:round;stroke-width:2"
       id="rect4284"
       d="m 403.57143,536.79798 10,0 0,4.72731 c 0,0 -1.25002,1.18182 -4.99999,1.18182 -3.74997,0 -5.00001,-1.18182 -5.00001,-1.18182 z" />
    <rect
       width="37.999977"
       x="389.57144"
       y="545.79797"
       height="2.00001"
       style="fill:url(#linearGradient4784-5);stroke-linecap:round;stroke-linejoin:round;stroke-width:2"
       id="rect4290" />
    <circle
       cx="408.57144"
       cy="518.79797"
       style="fill:url(#linearGradient4609);stroke-linecap:round;stroke-linejoin:round;stroke-width:2"
       id="path4286"
       r="19" />
    <path
       inkscape:connector-curvature="0"
       style="fill:url(#linearGradient4510);stroke-linecap:round;stroke-linejoin:round;stroke-width:2"
       id="path4286-9"
       d="m 391.57144,518.79796 a 17.000003,16.999998 0 0 1 17,-16.99999 17.000003,16.999998 0 0 1 17,16.99999 17.000003,16.999998 0 0 1 -17,17.00001 17.000003,16.999998 0 0 1 -17,-17.00001 z" />
    <circle
       cx="408.57144"
       cy="518.79797"
       style="fill:url(#linearGradient4510-8);stroke-linecap:round;stroke-linejoin:round;stroke-width:2"
       id="path4286-9-4"
       r="12.999987" />
    <circle
       cx="408.57144"
       cy="518.79797"
       style="fill:url(#linearGradient4327);stroke-linecap:round;stroke-linejoin:round;stroke-width:2"
       id="circle4309"
       r="12" />
    <path
       cx="408.57144"
       cy="519.79797"
       inkscape:connector-curvature="0"
       style="fill:url(#linearGradient4352);stroke-linecap:round;stroke-linejoin:round;stroke-width:2"
       id="circle4309-6"
       r="9.999989" />
    <circle
       cx="408.57144"
       cy="518.79797"
       style="fill:url(#linearGradient4356);stroke-linecap:round;stroke-linejoin:round;stroke-width:2"
       id="circle4354"
       r="10" />
    <circle
       cx="408.57144"
       cy="518.79797"
       style="fill:url(#linearGradient4356-7);stroke-linecap:round;stroke-linejoin:round;stroke-width:2"
       id="circle4354-5"
       r="7" />
    <circle
       cx="408.57144"
       cy="518.79797"
       style="fill:#2c3e50;stroke-linecap:round;stroke-linejoin:round;stroke-width:2"
       id="circle4354-5-1"
       r="5" />
    <path
       inkscape:connector-curvature="0"
       style="fill:url(#linearGradient4545);stroke-linecap:round;stroke-linejoin:round;stroke-width:2"
       id="rect4512"
       d="m 382.57144,509.79797 0,19 2.5,0 c 1.38502,0 2.5,-1.05923 2.5,-2.375 l 0,-14.25001 c 0,-1.31576 -1.11498,-2.37499 -2.5,-2.37499 l -2.5,0 z" />
    <path
       inkscape:connector-curvature="0"
       style="fill:url(#linearGradient4545-5);stroke-linecap:round;stroke-linejoin:round;stroke-width:2"
       id="rect4512-0"
       d="m 434.57144,509.79797 0,19 -2.50001,0 c -1.38501,0 -2.49999,-1.05923 -2.49999,-2.375 l 0,-14.25001 c 0,-1.31576 1.11498,-2.37499 2.49999,-2.37499 l 2.50001,0 z" />
    <circle
       cx="432.07144"
       cy="514.29797"
       style="fill:#11d116;stroke-linecap:round;stroke-linejoin:round;stroke-width:2"
       id="path4292"
       r="1.5" />
    <circle
       cx="405.57144"
       cy="515.79797"
       style="fill:#84cbfe;stroke-linecap:round;stroke-linejoin:round;stroke-width:2"
       id="path4786"
       r="1" />
    <circle
       cx="402.57141"
       cy="512.79797"
       style="fill:#84cbfe;stroke-linecap:round;stroke-linejoin:round;stroke-width:2"
       id="path4786-6"
       r="2" />
    <g
       transform="matrix(0.28580677,0,0,0.28580677,413.92983,510.5544)"
       id="g12"
       style="fill:#84cbfe;fill-rule:nonzero;stroke:none;stroke-width:1;stroke-linecap:butt;stroke-linejoin:miter;stroke-dasharray:none;fill-opacity:1">
      <g
         id="g3982"
         style="fill:#84cbfe;fill-opacity:1">
        <g
           style="fill:#84cbfe;fill-rule:nonzero;stroke:none;stroke-width:1;stroke-linecap:butt;stroke-linejoin:miter;stroke-dasharray:none;fill-opacity:1"
           id="g8"
           transform="translate(-46.457985,24.461881)">
          <path
             id="path10"
             d="m 23.378,27.8262 c -3.75,4.7128 -8.2032,8.3759 -14.30573,8.3759 -4.1045,0 -7.7666,-1.3945 -7.7666,-6.2851 0,-1.2178 0.5254,-4.0117 1.1338,-6.8047 0,0 4.4473,-20.585 4.4473,-20.585 0,0 -6.88677,0 -6.88677,0 0,0 0.6084,-2.1777 0.6084,-2.1777 0,0 8.02737,0 8.02737,0 C 11.3409,0.3496 13.9571,0 16.6563,0 c 0,0 -5.3154,22.5928 -5.3154,22.5928 -0.7032,3.1416 -1.3116,6.1064 -1.3116,7.2412 0,2.2675 2.0088,2.7881 3.75,2.7881 1.4834,0 3.3155,-1.1338 4.5371,-1.92 3.9278,-2.5293 5.7579,-7.3242 6.8037,-11.6894 0,0 4.4493,-18.6631 4.4493,-18.6631 0,0 9.0713,0 9.0713,0 0,0 -5.8418,25.5557 -5.8418,25.5557 -0.6133,2.6171 -0.9629,4.625 -0.8741,5.2334 0.0899,0.875 0.9639,1.4003 1.7412,1.4003 3.1446,0 6.9825,-7.2421 8.1172,-9.7753 0,0 1.92,1.0517 1.92,1.0517 -2.2676,5.8408 -7.0635,12.3867 -13.7881,12.3867 -5.2315,0 -6.625,-3.3134 -6.5371,-8.3759"
             inkscape:connector-curvature="0"
             style="fill:#84cbfe;fill-opacity:1" />
        </g>
        <path
           id="path14"
           d="M 0,23.0049 C 0,23.0049 3.1133,0 3.1133,0 c 0,0 2.9004,0 2.9004,0 0,0 -1.2676,8.914 -1.2676,8.914 0,0 0.0625,0.0625 0.0625,0.0625 1.2364,-1.2343 2.2373,-1.665 3.6446,-1.665 3.1347,0 5.2773,2.8057 5.2773,6.8418 0,4.0107 -2.2051,9.085 -9.7568,9.085 C 2.542,23.2383 0.8702,23.1377 0,23.0049 Z M 4.3789,11.6836 c 0,0 -1.3046,9.2168 -1.3046,9.2168 0,0 1.5712,0 1.5712,0 3.9415,0 6.1758,-2.7676 6.1758,-6.8096 0,-2.7383 -1.2334,-4.3086 -3.2353,-4.3086 -0.9385,0 -3.0108,0.6338 -3.2071,1.9014"
           inkscape:connector-curvature="0"
           style="fill:#84cbfe;fill-opacity:1" />
      </g>
    </g>
  </g>
</svg>
